{
    "name": "InputActions",
    "maps": [
        {
            "name": "Player",
            "id": "9bc47870-6272-43d3-adbb-1dc0b87928c2",
            "actions": [
                {
                    "name": "Mouse",
                    "type": "PassThrough",
                    "id": "1c1d5ffe-4b19-41f1-b64d-e4e9bf6341cf",
                    "expectedControlType": "Vector2",
                    "processors": "",
                    "interactions": ""
                },
                {
                    "name": "Move",
                    "type": "PassThrough",
                    "id": "3a911a03-bf0d-4a24-be3c-13b17c138c96",
                    "expectedControlType": "Vector2",
                    "processors": "",
                    "interactions": ""
                },
                {
                    "name": "Inventory",
                    "type": "Button",
                    "id": "d6d99f0b-5408-4b21-9ee1-601a7830689b",
                    "expectedControlType": "Button",
                    "processors": "",
                    "interactions": ""
                },
                {
                    "name": "Attack",
                    "type": "Button",
                    "id": "9853cb90-6a4d-4991-b9a9-0cea1fc7fe5e",
                    "expectedControlType": "Button",
                    "processors": "",
                    "interactions": ""
                }
            ],
            "bindings": [
                {
                    "name": "",
                    "id": "c215e6e6-e4ed-4645-9f40-8cde8c4fe439",
                    "path": "<Mouse>/position",
                    "interactions": "",
                    "processors": "",
                    "groups": "KeyboardMouseScheme",
                    "action": "Mouse",
                    "isComposite": false,
                    "isPartOfComposite": false
                },
                {
                    "name": "Move",
                    "id": "242771e6-b979-4fba-b4fd-c4c0d85956de",
                    "path": "2DVector",
                    "interactions": "",
                    "processors": "",
                    "groups": "",
                    "action": "Move",
                    "isComposite": true,
                    "isPartOfComposite": false
                },
                {
                    "name": "up",
                    "id": "99e6c9dc-7906-4570-af7f-81c241f8783d",
                    "path": "<Keyboard>/w",
                    "interactions": "",
                    "processors": "",
                    "groups": "KeyboardMouseScheme",
                    "action": "Move",
                    "isComposite": false,
                    "isPartOfComposite": true
                },
                {
                    "name": "down",
                    "id": "85fc8fdf-d17f-4850-b0fd-1e0c18e353a0",
                    "path": "<Keyboard>/s",
                    "interactions": "",
                    "processors": "",
                    "groups": "KeyboardMouseScheme",
                    "action": "Move",
                    "isComposite": false,
                    "isPartOfComposite": true
                },
                {
                    "name": "left",
                    "id": "6301bb5e-9fbe-4300-b6e1-be12ceda7e6e",
                    "path": "<Keyboard>/a",
                    "interactions": "",
                    "processors": "",
                    "groups": "KeyboardMouseScheme",
                    "action": "Move",
                    "isComposite": false,
                    "isPartOfComposite": true
                },
                {
                    "name": "right",
                    "id": "204aee94-5190-47f2-8eaf-80e92afd641f",
                    "path": "<Keyboard>/d",
                    "interactions": "",
                    "processors": "",
                    "groups": "KeyboardMouseScheme",
                    "action": "Move",
                    "isComposite": false,
                    "isPartOfComposite": true
                },
                {
                    "name": "",
                    "id": "c06cc511-5f90-46a7-9a88-dd95d3ab99bc",
                    "path": "<Keyboard>/i",
                    "interactions": "",
                    "processors": "",
                    "groups": "KeyboardMouseScheme",
                    "action": "Inventory",
                    "isComposite": false,
                    "isPartOfComposite": false
                },
                {
                    "name": "",
                    "id": "082650a5-0270-4eec-91cc-b14848004283",
                    "path": "<Mouse>/leftButton",
                    "interactions": "",
                    "processors": "",
                    "groups": "KeyboardMouseScheme",
                    "action": "Attack",
                    "isComposite": false,
                    "isPartOfComposite": false
                }
            ]
        }
    ],
    "controlSchemes": [
        {
            "name": "KeyboardMouseScheme",
            "bindingGroup": "KeyboardMouseScheme",
            "devices": [
                {
                    "devicePath": "<Keyboard>",
                    "isOptional": false,
                    "isOR": false
                },
                {
                    "devicePath": "<Mouse>",
                    "isOptional": false,
                    "isOR": false
                }
            ]
        }
    ]
}