%YAML 1.1
%TAG !u! tag:unity3d.com,2011:
--- !u!1 &2867895099386846150
GameObject:
  m_ObjectHideFlags: 0
  m_CorrespondingSourceObject: {fileID: 0}
  m_PrefabInstance: {fileID: 0}
  m_PrefabAsset: {fileID: 0}
  serializedVersion: 6
  m_Component:
  - component: {fileID: 2867895099386846146}
  - component: {fileID: 2867895099386846157}
  - component: {fileID: 2867895099386846147}
  - component: {fileID: 2867895099386846144}
  - component: {fileID: 2867895099386846156}
  - component: {fileID: 2867895099386846145}
  - component: {fileID: 2867895099386846159}
  m_Layer: 0
  m_Name: ConsumibleHealth
  m_TagString: PickItem
  m_Icon: {fileID: 0}
  m_NavMeshLayer: 0
  m_StaticEditorFlags: 0
  m_IsActive: 1
--- !u!4 &2867895099386846146
Transform:
  m_ObjectHideFlags: 0
  m_CorrespondingSourceObject: {fileID: 0}
  m_PrefabInstance: {fileID: 0}
  m_PrefabAsset: {fileID: 0}
  m_GameObject: {fileID: 2867895099386846150}
  m_LocalRotation: {x: 0, y: 0, z: 0, w: 1}
  m_LocalPosition: {x: 39.77, y: 0.5610107, z: 34.04}
  m_LocalScale: {x: 0.5, y: 0.5, z: 0.7}
  m_Children: []
  m_Father: {fileID: 0}
  m_RootOrder: 0
  m_LocalEulerAnglesHint: {x: 0, y: 0, z: 0}
--- !u!114 &2867895099386846157
MonoBehaviour:
  m_ObjectHideFlags: 0
  m_CorrespondingSourceObject: {fileID: 0}
  m_PrefabInstance: {fileID: 0}
  m_PrefabAsset: {fileID: 0}
  m_GameObject: {fileID: 2867895099386846150}
  m_Enabled: 1
  m_EditorHideFlags: 0
  m_Script: {fileID: 11500000, guid: d21cab6575cbb4b468c7543344e3638c, type: 3}
  m_Name: 
  m_EditorClassIdentifier: 
  m_Type: 1
  m_ResourceAmmo:
    m_ItemName: Ammo
    m_Weight: 20
    m_ItemImage: {fileID: 2800000, guid: eb1aa0acd4ae78c4aa05eeebfacefab6, type: 3}
    m_MarketValue: 20
    m_DeteriorationAbleToWithstand: 5
    m_DeteriorationSpeed: 1
    m_ResourceAmount: 20
  m_ConsumibleHealth:
    m_ItemName: Health
    m_Weight: 3
    m_ItemImage: {fileID: 2800000, guid: 8e0d4f94440606e439f0d0401a94c52b, type: 3}
    m_DeteriorationAbleToWithstand: 10
    m_DeteriorationSpeed: 1
    m_HealthPoints: 10
  m_ConsumibleSpeed:
    m_ItemName: 
    m_Weight: 0
    m_ItemImage: {fileID: 0}
    m_DeteriorationAbleToWithstand: 0
    m_DeteriorationSpeed: 0
  m_WeaponPistol:
    m_ItemName: 
    m_Weight: 0
    m_ItemImage: {fileID: 0}
    m_MarketValue: 0
    m_DamagePerSecond: 0
    m_ResourceNeededName: 
  m_WeaponSpear:
    m_ItemName: 
    m_Weight: 0
    m_ItemImage: {fileID: 0}
    m_MarketValue: 0
    m_DamagePerSecond: 0
    m_ResourceNeededName: 
  m_ItemTrash:
    m_ItemName: 
    m_Weight: 0
    m_ItemImage: {fileID: 0}
--- !u!33 &2867895099386846147
MeshFilter:
  m_ObjectHideFlags: 0
  m_CorrespondingSourceObject: {fileID: 0}
  m_PrefabInstance: {fileID: 0}
  m_PrefabAsset: {fileID: 0}
  m_GameObject: {fileID: 2867895099386846150}
  m_Mesh: {fileID: 10202, guid: 0000000000000000e000000000000000, type: 0}
--- !u!23 &2867895099386846144
MeshRenderer:
  m_ObjectHideFlags: 0
  m_CorrespondingSourceObject: {fileID: 0}
  m_PrefabInstance: {fileID: 0}
  m_PrefabAsset: {fileID: 0}
  m_GameObject: {fileID: 2867895099386846150}
  m_Enabled: 1
  m_CastShadows: 1
  m_ReceiveShadows: 1
  m_DynamicOccludee: 1
  m_StaticShadowCaster: 0
  m_MotionVectors: 1
  m_LightProbeUsage: 1
  m_ReflectionProbeUsage: 1
  m_RayTracingMode: 2
  m_RayTraceProcedural: 0
  m_RenderingLayerMask: 1
  m_RendererPriority: 0
  m_Materials:
  - {fileID: 2100000, guid: ab624f3866e5a134a8787b203bfda0b0, type: 2}
  m_StaticBatchInfo:
    firstSubMesh: 0
    subMeshCount: 0
  m_StaticBatchRoot: {fileID: 0}
  m_ProbeAnchor: {fileID: 0}
  m_LightProbeVolumeOverride: {fileID: 0}
  m_ScaleInLightmap: 1
  m_ReceiveGI: 1
  m_PreserveUVs: 0
  m_IgnoreNormalsForChartDetection: 0
  m_ImportantGI: 0
  m_StitchLightmapSeams: 1
  m_SelectedEditorRenderState: 3
  m_MinimumChartSize: 4
  m_AutoUVMaxDistance: 0.5
  m_AutoUVMaxAngle: 89
  m_LightmapParameters: {fileID: 0}
  m_SortingLayerID: 0
  m_SortingLayer: 0
  m_SortingOrder: 0
  m_AdditionalVertexStreams: {fileID: 0}
--- !u!54 &2867895099386846156
Rigidbody:
  m_ObjectHideFlags: 0
  m_CorrespondingSourceObject: {fileID: 0}
  m_PrefabInstance: {fileID: 0}
  m_PrefabAsset: {fileID: 0}
  m_GameObject: {fileID: 2867895099386846150}
  serializedVersion: 2
  m_Mass: 1
  m_Drag: 0
  m_AngularDrag: 0.05
  m_UseGravity: 1
  m_IsKinematic: 0
  m_Interpolate: 0
  m_Constraints: 0
  m_CollisionDetection: 0
--- !u!65 &2867895099386846145
BoxCollider:
  m_ObjectHideFlags: 0
  m_CorrespondingSourceObject: {fileID: 0}
  m_PrefabInstance: {fileID: 0}
  m_PrefabAsset: {fileID: 0}
  m_GameObject: {fileID: 2867895099386846150}
  m_Material: {fileID: 0}
  m_IsTrigger: 0
  m_Enabled: 1
  serializedVersion: 2
  m_Size: {x: 1, y: 1, z: 1}
  m_Center: {x: 0, y: 0, z: 0}
--- !u!65 &2867895099386846159
BoxCollider:
  m_ObjectHideFlags: 0
  m_CorrespondingSourceObject: {fileID: 0}
  m_PrefabInstance: {fileID: 0}
  m_PrefabAsset: {fileID: 0}
  m_GameObject: {fileID: 2867895099386846150}
  m_Material: {fileID: 0}
  m_IsTrigger: 1
  m_Enabled: 1
  serializedVersion: 2
  m_Size: {x: 2, y: 2, z: 2}
  m_Center: {x: 0, y: 0, z: 0}
